Time,,,
1,-0.8046482086181640,-3.1898555755615234,9.5695667266845703
2,-1.5997173786163330,-2.5672111511230468,10.2688446044921875
3,-1.5135049819946289,1.7146670818328857,13.5161743164062500
4,-2.0307788848876953,7.5004711151123046,12.6827888488769531
5,-0.2011620521545410,8.9756593704223632,8.4488067626953125
6,-0.3735866785049438,7.0502510070800781,5.6708545684814453
7,-1.3985552787780761,1.5614007949829101,4.4926190376281738
8,-0.7088568210601806,-1.2644472122192382,3.3527009487152099
9,-1.7529836654663085,-3.1228015422821044,5.9007539749145507
10,-2.1074120998382568,-5.4122176170349121,5.4984297752380371
11,-3.3143844604492187,-4.3106155395507812,9.9431533813476562
12,-3.8891332626342773,-3.8412372589111328,10.9872798919677734
13,-3.8508165359497070,-1.5709799766540527,12.2708854675292968