Time,,,
1,-3.4484925270080566,-3.3143844604492187,12.0314073562622070
2,-2.5193154811859130,4.5213565826416015,13.2096424102783203
3,-0.9004396438598632,6.0252828598022460,10.9106473922729492
4,-0.6418027877807617,4.9141020774841308,10.0293655395507812
5,-0.0670540237426757,6.1689701080322265,8.1326942443847656
6,0.4885364055633544,4.8757848739624023,6.7820353507995605
7,-0.1724246263504028,2.0307788848876953,5.0194725990295410
8,-0.9770728111267089,0.1820037651062011,5.1823177337646484
9,-1.7242462635040283,-2.7587940692901611,6.0348620414733886
10,-1.6571922302246093,-4.0136618614196777,7.2609925270080566
11,-3.7550251483917236,-5.0194725990295410,8.8319721221923828
12,-3.8795539855957031,-4.5596733093261718,10.0006284713745117
13,-3.3431217670440673,-2.8641645431518554,11.3800249099731445
14,-1.5901381969451904,0.8333856582641601,11.9835109710693359