Time,,,
1,-5.2685303688049316,1.5230841636657714,7.6441583633422851
2,-2.1648869514465332,0.4023241043090820,1.3315012454986572
3,4.5309357643127441,3.2090139389038085,-7.9794282913208007
4,9.9910488128662109,-5.5942211151123046,19.5318775177001953
5,7.3663630485534667,-2.6438443660736083,16.4952888488769531
6,7.1173052787780761,-0.2777952194213867,11.4853954315185546
7,3.6304962635040283,-0.4597990036010742,9.1576633453369140
8,3.4772298336029052,0.0574748754501342,8.6308097839355468
9,3.7358667850494384,-0.6322236061096191,9.1001882553100585
10,3.2090139389038085,-0.7663316726684570,8.6978645324707031
11,2.8066897392272949,0.0574748754501342,7.9890074729919433
12,2.4043655395507812,-0.5268530368804931,9.2821922302246093
13,4.0902953147888183,-0.8046482086181640,8.7361803054809570