Time,,,
1,-0.4214824008941649,-0.6418028116226197,0.3831663131713867
2,-2.356469841003418,-12.97016339302063,0.14368724822998047
3,6.456344127655029,-5.900753021240234,-2.6246862411499023
4,-11.370445728302002,36.10379981994629,-4.291457176208496
5,4.597989749908447,2.969533920288086,10.134736061096191
6,8.515860843658448,-18.602699947357177,-8.218906879425049
