Time,,,
1,0.1915829181671142,0.1436871910095214,9.3396673202514648
2,-1.2644472122192382,-6.0731782913208007,9.3013505935668945
3,6.1114950180053710,-19.5318775177001953,7.5675249099731445
4,-4.3010363578796386,-6.9161434173583984,3.6592335700988769
5,-4.4830403327941894,19.5414562225341796,8.7170228958129882
6,-1.0824434757232666,11.2076005935668945,10.1251573562622070