Time,,,
1,0.0957914543151855,-1.9254082679748535,10.2305278778076171
2,0.1436871910095214,-1.4751884937286376,8.9373426437377929
3,-0.8142273902893066,-3.7741832733154296,8.5829143524169921
4,0.8717022895812988,-14.2058734893798828,7.8644785881042480
5,0.5651695728302001,-13.2862749099731445,4.4447236061096191
6,-5.1918969154357910,3.3622801303863525,5.3355841636657714
7,-7.7974243164062500,15.9875936508178710,10.7956972122192382