Time,,,
1,1.4656093120574951,-0.8046482086181640,9.7994661331176757
2,0.6513819217681884,-0.8812813758850097,10.3550567626953125
3,0.6992776393890380,-1.6571922302246093,9.5025119781494140
4,0.7375942230224609,-6.0923366546630859,8.3051195144653320
5,3.2090139389038085,-15.0009422302246093,6.6191897392272949
6,-2.4522614479064941,-7.9890074729919433,3.9561872482299804
7,-4.2435612678527832,3.4293341636657714,3.0461683273315429