Time,,,
1,-1.1590765714645385,-0.9866519927978515,9.6845159530639648
2,-1.0345476865768432,-8.7744970321655273,10.4221105575561523
3,0.3256909608840942,-17.3190956115722656,9.7803077697753906
4,-1.7242462635040283,-1.0345476865768432,3.2473304271697998
5,-3.7358667850494384,19.4169273376464843,6.1402325630187988
6,1.0345476865768432,8.1326942443847656,9.8760995864868164
7,1.6571922302246093,3.8316583633422851,7.7878456115722656