Time,,,
1,0.8142273426055908,-1.5901381969451904,-3.7646045684814453
2,-0.7088568210601807,1.0441267490386963,-1.4081339836120605
3,-0.9770728111267091,0.833385705947876,-0.9579148292541504
4,1.657192087173462,-1.005810260772705,0.06705427169799805
5,-1.7146669626235962,0.04789566993713379,-0.11494970321655273
6,0.43106157779693605,-0.8621230125427246,1.925407886505127
7,0.7375941753387452,-0.3448493480682373,1.494347095489502
8,0.04789581298828116,-0.948335361480713,2.0690956115722656
9,-3.094064140319824,0.7759108066558839,-0.17242431640625
10,0.6130653381347657,-0.019158267974853538,0.3544282913208008
11,-1.111180877685547,0.17242457866668703,2.7683725357055664
12,2.854585361480713,-1.7625628232955932,-6.303077697753906
13,-1.6476130485534668,0.07663316726684566,1.9733037948608398
14,-0.009579181671142578,0.3927449941635132,-1.4081344604492188
