Time
1,1.1494975090026855,-1.3602386713027954,-5.096105575561523
2,-1.226130723953247,-1.532663106918335,9.981469631195068
3,1.3506596088409424,3.26648850440979,2.002041816711426
4,-0.8429646492004395,5.220634508132934,0.4310617446899414
5,1.4081342697143555,1.1303391456604004,-2.327733039855957
6,-0.708856749534607,-0.6609611511230469,-2.892902374267578
7,-0.8717023134231567,1.379396915435791,-2.998271942138672
8,-0.5364320278167725,-1.7913002967834473,-0.8046483993530273
9,0.19158267974853516,0.1724247932434082,-3.2569093704223633
10,-1.2357096672058105,-1.0249686241149902,-0.5651697158813478
11,0.05747485160827637,-4.186086654663086,-0.4406405448913573
12,-0.478956937789917,0.967493724822998,1.820037603378296
13,1.0537056922912598,-4.64588565826416,0.07663321495056152
14,2.940797781944275,-2.6630024909973145,1.7242465019226074
15,0.7471733808517456,-0.3352699279785156,5.833699703216553
16,0.019158267974853538,0.7280149459838867,1.2069721221923828
17,-1.3889761447906492,6.542556438446045,0.6034860610961914
