Time,,,
1,1.2836055755615234,2.9407978057861328,12.2038316726684570
2,2.0978329181671142,1.3506596088409423,8.4392271041870117
3,1.3889760971069335,2.3947863578796386,7.0310931205749511
4,0.4119032859802246,3.2281720638275146,6.0731782913208007
5,2.0690953731536865,2.2223618030548095,6.1402325630187988
6,0.3544284105300903,2.2702574729919433,6.0252828598022460
7,0.7854899883270263,1.4081344604492187,7.9506907463073730
8,1.5230841636657714,1.0632851123809814,9.4450378417968750
9,1.5709799766540527,0.1149497509002685,11.5141334533691406
10,-1.5230841636657714,0.8908605575561523,11.3417091369628906
11,-0.9100188255310058,0.8717022895812988,11.6961374282836914
12,-2.0211997032165527,1.0441268682479858,14.4645099639892578
13,0.8333856582641601,-0.7184359550476074,8.1614322662353515
14,-0.8142273902893066,-0.6418027877807617,10.1347360610961914
15,-0.8238065719604492,-0.2490577936172485,8.7266016006469726