Time,,,
1,1.3506596088409423,0.8621231079101562,8.9565010070800781
2,1.9254082679748535,0.5555904388427734,8.2093276977539062
3,1.0728642940521240,1.2644472122192382,7.4525752067565917
4,1.1111809015274047,1.7146670818328857,6.5521354675292968
5,1.0632851123809814,1.1782349348068237,8.3434362411499023
6,0.3927449989318847,1.4560301303863525,7.3855214118957519
7,0.0095791454315185,2.3373115062713623,7.0310931205749511
8,0.4023241043090820,1.0824434757232666,7.8165826797485351
9,-0.3065326690673828,0.8621231079101562,9.5887250900268554
10,-0.8142273902893066,0.2011620521545410,10.1155776977539062
11,-1.6955088615417480,0.1436871910095214,10.0676822662353515
12,-1.7146670818328857,-0.7280150413513183,11.9068784713745117
13,-2.1840450763702392,-0.7950691223144531,12.0314073562622070
14,-3.1515388488769531,-0.6801193237304687,11.1309671401977539
15,-3.0270099639892578,-0.9004396438598632,10.4508485794067382
16,-2.1169912815093994,-1.0728642940521240,9.5983037948608398
17,-1.3985552787780761,-1.2644472122192382,10.6424312591552734