Time,,,
1,1.379396915435791,-0.0383165836334229,-7.241834044456482
2,9.397141933441162,6.23602409362793,-18.459014058113098
3,12.395414352416992,-20.930433750152588,38.91049003601074
4,-8.161431312561035,8.717022895812988,0.14368629455566406
5,-7.433417558670044,5.97738676071167,-7.395099639892578
6,-0.2969536781311035,0.0862123126983642,-3.53470516204834
7,0.18200373649597168,0.4119032745361328,-0.11494922637939453
8,-0.23947858810424805,-0.4310615653991698,0.2107410430908203
9,0.04789566993713379,-1.1590766077041625,1.9924631118774414
