Time,,,
1,1.5039253234863281,-3.4868090629577635,-1.5422425270080566
2,-1.9158287048339844,2.9886935234069822,-0.5747489929199219
3,0.6226444244384766,0.038316583633422774,-2.883322620391846
4,3.764604091644287,-0.40232412815093976,-3.007851696014404
5,10.105998992919922,-0.842964768409729,-2.078674554824829
6,-2.739635944366455,12.874371910095215,14.320823431015015
7,5.3739013671875,-10.87233054637909,8.314697265625
8,-2.7300572395324707,-2.71089813709259,0.009578704833984375
9,-3.8603954315185547,2.346890640258789,-9.205557823181152
10,0.028737306594848633,-0.4119032621383667,-3.381438732147217
11,0.04789566993713379,0.12452886104583738,1.6571917533874512
12,0.3831658363342285,-1.5422423553466795,2.346891403198242
13,-3.266488552093506,1.417713494300842,0.2586374282836914
14,-0.7471733927726745,-1.3698178291320802,-3.2377519607543945
15,-0.20116206407547,2.241520047187805,0.28737449645996094
