Time
1,-0.6609611034393310,0.0957914543151855,14.8764133453369140
2,-0.9387562751770019,-1.0632851123809814,14.5219850540161132
3,0.3161118030548095,1.3123430013656616,14.2058734893798828
4,0.0000000000000000,8.8032350540161132,12.0218276977539062
5,0.0862123107910156,12.9797420501708984,7.7591080665588378
6,2.3564698696136474,10.4316902160644531,6.2647614479064941
7,2.2989950180053710,7.3280463218688964,3.1994347572326660
8,0.7663316726684570,7.2609925270080566,1.1111809015274047
9,1.1494975090026855,0.8142273902893066,-0.0478957271575927
10,-2.0978329181671142,3.3622801303863525,-0.2586369276046752
11,-0.9962311744689941,-0.7088568210601806,1.2740263938903808
12,-1.0920225334167480,-4.9332599639892578,4.9811558723449707
13,-0.2298995018005371,-7.0502510070800781,2.6534233093261718
14,-0.2490577936172485,-9.6653575897216796,8.8223934173583984
15,0.2394786357879638,-6.6766643524169921,17.6256275177001953
16,3.7550251483917236,-6.6862435340881347,18.7463874816894531
17,1.4560301303863525,2.5288944244384765,18.8421783447265625
18,2.1936242580413818,7.1364636421203613,15.3649492263793945
19,1.6571922302246093,6.4467649459838867,8.8032350540161132
20,0.0287374382019042,7.2226758003234863,6.7820353507995605